…
# gen_hex_coord() works

    Code
      all_hex_coord
    Output
      # A tibble: 120 x 3
         hex_poly_id       x         y
               <int>   <dbl>     <dbl>
       1           1 -0.1     0.0949  
       2           1 -0.263   0.000514
       3           1 -0.263  -0.188   
       4           1 -0.1    -0.283   
       5           1  0.0634 -0.188   
       6           1  0.0634  0.000514
       7           2  0.227   0.0949  
       8           2  0.0634  0.000514
       9           2  0.0634 -0.188   
      10           2  0.227  -0.283   
      # i 110 more rows

# assign_data() works

    Code
      umap_with_hb_id
    Output
      # A tibble: 3,750 x 4
          UMAP1  UMAP2    ID hb_id
          <dbl>  <dbl> <int> <int>
       1 0.276  0.915      1    18
       2 0.927  0.347      2    12
       3 0.810  0.242      3     7
       4 0.137  0.657      5    13
       5 0.476  0.799      6    14
       6 0.0485 0.0657     7     5
       7 0.737  0.851      9    15
       8 0.833  0.224     10     7
       9 0.909  0.371     11    12
      10 0.0890 0.194     12     5
      # i 3,740 more rows
…
# gen_edges() works

    Code
      gen_edges(tri_object = tr1_object)
    Output
      # A tibble: 35 x 6
          from    to  x_from  y_from   x_to    y_to
         <int> <int>   <dbl>   <dbl>  <dbl>   <dbl>
       1     1     2 -0.1    -0.0938 0.227  -0.0938
       2     4     5  0.0634  0.189  0.390   0.189 
       3     3     5  0.554  -0.0938 0.390   0.189 
       4     5     6  0.390   0.189  0.717   0.189 
       5     5    11  0.390   0.189  0.390   0.755 
       6     5     8  0.390   0.189  0.554   0.472 
       7     1    10 -0.1    -0.0938 0.0634  0.755 
       8     5    10  0.390   0.189  0.0634  0.755 
       9    10    11  0.0634  0.755  0.390   0.755 
      10     8     9  0.554   0.472  0.880   0.472 
      # i 25 more rows

# cal_2d_dist() works

    Code
      cal_2d_dist(tr_coord_df = tr_from_to_df, start_x = "x_from", start_y = "y_from",
        end_x = "x_to", end_y = "y_to", select_vars = c("from", "to", "distance"))
    Output
      # A tibble: 35 x 3
          from    to distance
         <int> <int>    <dbl>
       1     1     2    0.327
       2     4     5    0.327
       3     3     5    0.327
       4     5     6    0.327
       5     5    11    0.566
       6     5     8    0.327
       7     1    10    0.865
       8     5    10    0.654
       9    10    11    0.327
      10     8     9    0.327
      # i 25 more rows
