…
# compute_weights() works

    Code
      compute_weights(nldr_df = dplyr::select(s_curve_noise_umap, -ID), hb_object = hb_obj)
    Output
      # A tibble: 75 x 6
         hb_id avg_umap1 avg_umap2 UMAP1 UMAP2 distance
         <int>     <dbl>     <dbl> <dbl> <dbl>    <dbl>
       1     1     -2.71     -5.38 -2.73 -5.35   0.0332
       2     1     -2.71     -5.38 -2.69 -5.40   0.0332
       3     2     -2.21     -5.52 -2.31 -5.50   0.107 
       4     2     -2.21     -5.52 -2.35 -5.68   0.209 
       5     2     -2.21     -5.52 -2.50 -5.74   0.367 
       6     2     -2.21     -5.52 -1.95 -5.34   0.321 
       7     2     -2.21     -5.52 -1.81 -5.32   0.442 
       8     2     -2.21     -5.52 -2.34 -5.54   0.130 
       9     6     -2.82     -4.20 -2.81 -3.91   0.293 
      10     6     -2.82     -4.20 -2.86 -4.28   0.0893
      # i 65 more rows
…
