# fit_highd_model() works

    Code
      fit_highd_model(highd_data = scurve, nldr_data = scurve_umap, b1 = 4, q = 0.1,
        benchmark_highdens = 5)
    Message
      v Model generated successfully! 🎉
    Output
      $nldr_obj
      $nldr_obj$scaled_nldr
      # A tibble: 5,000 x 3
          emb1  emb2    ID
         <dbl> <dbl> <int>
       1 0.707 0.839     1
       2 0.231 0.401     2
       3 0.232 0.215     3
       4 0.790 0.564     4
       5 0.761 0.551     5
       6 0.445 0.721     6
       7 0.900 0.137     7
       8 0.247 0.392     8
       9 0.325 0.542     9
      10 0.278 0.231    10
      # i 4,990 more rows
…
      $data_hb_id
      # A tibble: 5,000 x 4
          emb1  emb2    ID     h
         <dbl> <dbl> <int> <int>
       1 0.707 0.839     1    15
       2 0.231 0.401     2    10
       3 0.232 0.215     3     6
       4 0.790 0.564     4    12
       5 0.761 0.551     5    12
       6 0.445 0.721     6    14
       7 0.900 0.137     7     8
       8 0.247 0.392     8    10
       9 0.325 0.542     9    10
      10 0.278 0.231    10     6
      # i 4,990 more rows
…
      $trimesh_data
      # A tibble: 30 x 8
          from    to  x_from  y_from   x_to  y_to from_count to_count
         <int> <int>   <dbl>   <dbl>  <dbl> <dbl>      <dbl>    <dbl>
       1     3     4  0.0561  0.181  0.368  0.181        193      674
       2     3     8  0.0561  0.181  0.212  0.452        193      601
       3     4     5  0.368   0.181  0.681  0.181        674      529
       4     1     4  0.524  -0.0892 0.368  0.181        116      674
       5     4     9  0.368   0.181  0.524  0.452        674      244
       6     5     9  0.681   0.181  0.524  0.452        529      244
       7     7    11 -0.1     0.452  0.0561 0.722         87      183
       8     8    12  0.212   0.452  0.368  0.722        601      627
       9     8     9  0.212   0.452  0.524  0.452        601      244
      10     2     5  0.837  -0.0892 0.681  0.181         82      529
      # i 20 more rows
      

---

    Code
      fit_highd_model(highd_data = scurve, nldr_data = scurve_umap, b1 = 15, q = 0.1,
        benchmark_highdens = 5)
    Message
      v Model generated successfully! 🎉
    Output
      $nldr_obj
      $nldr_obj$scaled_nldr
      # A tibble: 5,000 x 3
          emb1  emb2    ID
         <dbl> <dbl> <int>
       1 0.707 0.839     1
       2 0.231 0.401     2
       3 0.232 0.215     3
       4 0.790 0.564     4
       5 0.761 0.551     5
       6 0.445 0.721     6
       7 0.900 0.137     7
       8 0.247 0.392     8
       9 0.325 0.542     9
      10 0.278 0.231    10
      # i 4,990 more rows
…
      $hb_obj
      $a1
      [1] 0.08326136
      
      $a2
      [1] 0.07210645
      
      $bins
      [1] 15 16
      
      $start_point
      [1] -0.10000000 -0.08923607
      
      $centroids
      # A tibble: 240 x 3
             h     c_x     c_y
         <int>   <dbl>   <dbl>
       1     1 -0.1    -0.0892
       2     2 -0.0167 -0.0892
       3     3  0.0665 -0.0892
       4     4  0.150  -0.0892
       5     5  0.233  -0.0892
       6     6  0.316  -0.0892
       7     7  0.400  -0.0892
       8     8  0.483  -0.0892
       9     9  0.566  -0.0892
      10    10  0.649  -0.0892
      # i 230 more rows
…
      $data_hb_id
      # A tibble: 5,000 x 4
          emb1  emb2    ID     h
         <dbl> <dbl> <int> <int>
       1 0.707 0.839     1   205
       2 0.231 0.401     2   109
       3 0.232 0.215     3    65
       4 0.790 0.564     4   146
       5 0.761 0.551     5   146
       6 0.445 0.721     6   172
       7 0.900 0.137     7    58
       8 0.247 0.392     8   110
       9 0.325 0.542     9   141
      10 0.278 0.231    10    80
      # i 4,990 more rows
      
      $std_cts
      # A tibble: 142 x 3
             h   n_h    w_h
         <int> <int>  <dbl>
       1    21    12 0.0024
       2    22    17 0.0034
       3    23    22 0.0044
       4    24    10 0.002 
       5    25     7 0.0014
       6    26    12 0.0024
       7    27     1 0.0002
       8    36    42 0.0084
       9    37    42 0.0084
      10    38    44 0.0088
      # i 132 more rows
      
      $b
      [1] 240
      
      $m
      [1] 142
      
      $pts_bins
      # A tibble: 142 x 2
             h pts_list  
         <int> <list>    
       1    21 <int [12]>
       2    22 <int [17]>
       3    23 <int [22]>
       4    24 <int [10]>
       5    25 <int [7]> 
       6    26 <int [12]>
       7    27 <int [1]> 
       8    36 <int [42]>
       9    37 <int [42]>
      10    38 <int [44]>
      # i 132 more rows
      
      attr(,"class")
      [1] "hex_bin_obj"
      
      $model_highd
      # A tibble: 130 x 8
             h      x1    x2    x3         x4        x5       x6        x7
         <int>   <dbl> <dbl> <dbl>      <dbl>     <dbl>    <dbl>     <dbl>
       1    21 -0.992   1.91 1.11  -0.000427   0.000624  0.00749  0.00105 
       2    22 -0.906   1.93 1.41  -0.0000183  0.00331  -0.0204  -0.000363
       3    23 -0.680   1.93 1.72  -0.000810  -0.00259  -0.00449  0.00153 
       4    24 -0.272   1.93 1.96   0.00251    0.00668  -0.0460   0.00128 
       5    25  0.0760  1.93 2.00   0.00876    0.00447   0.00851 -0.00195 
       6    26  0.461   1.93 1.89  -0.00478    0.00492   0.00835  0.00172 
       7    36 -0.985   1.75 0.853 -0.00202    0.000397  0.00331  0.000338
       8    37 -0.980   1.66 1.17  -0.000374  -0.00154   0.0165   0.000126
       9    38 -0.821   1.64 1.56  -0.000459   0.000538 -0.0123   0.000780
      10    39 -0.484   1.68 1.87   0.00313    0.00241   0.00823 -0.00117 
      # i 120 more rows
…
      $trimesh_data
      # A tibble: 322 x 8
          from    to x_from  y_from  x_to   y_to from_count to_count
         <int> <int>  <dbl>   <dbl> <dbl>  <dbl>      <dbl>    <dbl>
       1    16    26 0.275   0.127  0.233 0.199          65       67
       2    25    26 0.150   0.199  0.233 0.199          39       67
       3    25    37 0.150   0.199  0.191 0.271          39       62
       4    36    49 0.108   0.271  0.150 0.343          62       34
       5    36    37 0.108   0.271  0.191 0.271          62       62
       6     1     7 0.358  -0.0171 0.316 0.0550         12       42
       7    48    49 0.0665  0.343  0.150 0.343          45       34
       8    37    38 0.191   0.271  0.275 0.271          62       68
       9    26    27 0.233   0.199  0.316 0.199          67       56
      10    27    38 0.316   0.199  0.275 0.271          56       68
      # i 312 more rows
