…
# extract_coord_of_shifted_hex_grid() works

    Code
      extract_coord_of_shifted_hex_grid(nldr_data_with_hb_id = UMAP_data_with_hb_id,
        num_bins_x = num_bins_x, hex_full_count_df = hex_full_count_df, shift_x = NA,
        shift_y = NA, cell_area = 1)
    Output
      $hex_full_count_df_new
      # A tibble: 300 x 9
             x     y    id   c_x   c_y hexID polygon_id counts std_counts
         <dbl> <dbl> <int> <dbl> <dbl> <int>      <int>  <int>      <dbl>
       1 -3.09 -5.83     1 -3.81 -6.28     1          1     NA       NA  
       2 -3.09 -6.73     1 -3.81 -6.28     1          1     NA       NA  
       3 -3.81 -7.19     1 -3.81 -6.28     1          1     NA       NA  
       4 -4.52 -6.73     1 -3.81 -6.28     1          1     NA       NA  
       5 -4.52 -5.83     1 -3.81 -6.28     1          1     NA       NA  
       6 -3.81 -5.37     1 -3.81 -6.28     1          1     NA       NA  
       7 -1.66 -5.83     2 -2.38 -6.28     2          2      4        0.4
       8 -1.66 -6.73     2 -2.38 -6.28     2          2      4        0.4
       9 -2.38 -7.19     2 -2.38 -6.28     2          2      4        0.4
      10 -3.09 -6.73     2 -2.38 -6.28     2          2      4        0.4
      # i 290 more rows
…
