# predict_emb() works

    Code
      predict_emb(highd_data = scurve, model_highd = scurve_model_obj$model_highd,
      model_2d = scurve_model_obj$model_2d)
    Output
      # A tibble: 5,000 x 4
         pred_emb_1 pred_emb_2    ID pred_h
              <dbl>      <dbl> <int>  <int>
       1      0.691      0.848     1    205
       2      0.191      0.416     2    109
       3      0.316      0.199     3     66
       4      0.774      0.560     4    146
       5      0.774      0.560     5    146
       6      0.441      0.704     6    172
       7      0.941      0.127     7     58
       8      0.275      0.416     8    110
       9      0.358      0.560     9    141
      10      0.316      0.343    10     96
      # i 4,990 more rows
…
# augment() works

    Code
      augment(highd_data = scurve, model_highd = scurve_model_obj$model_highd,
      model_2d = scurve_model_obj$model_2d)
    Output
      # A tibble: 5,000 x 32
            ID      x1     x2       x3       x4       x5       x6        x7 pred_h
         <int>   <dbl>  <dbl>    <dbl>    <dbl>    <dbl>    <dbl>     <dbl>  <int>
       1     1 -0.120  1.64   -1.99     0.0104   0.0125   0.0923  -0.00128     205
       2     2 -0.0492 1.51    0.00121 -0.0177   0.00726 -0.0362  -0.00535     109
       3     3 -0.774  1.30    0.367   -0.00173  0.0156  -0.0962   0.00335      66
       4     4 -0.606  0.246  -1.80    -0.00897 -0.0187  -0.0716   0.00126     146
       5     5 -0.478  0.0177 -1.88     0.00848  0.00533  0.0998   0.000677    146
       6     6  0.818  0.927  -1.58    -0.00318 -0.00980  0.0989   0.00696     172
       7     7  0.910  1.40    1.42     0.00699 -0.0182  -0.0710   0.00966      58
       8     8 -0.0691 1.59    0.00239  0.0127  -0.0130   0.0396  -0.000185    110
       9     9  0.859  1.59   -0.488   -0.0119   0.00421 -0.00440 -0.00595     141
      10    10 -0.727  1.62    0.314    0.00251  0.0177  -0.0755  -0.00369      96
      # i 4,990 more rows
      # i 23 more variables: model_high_d_x1 <dbl>, model_high_d_x2 <dbl>,
      #   model_high_d_x3 <dbl>, model_high_d_x4 <dbl>, model_high_d_x5 <dbl>,
      #   model_high_d_x6 <dbl>, model_high_d_x7 <dbl>, error_square_x1 <dbl>,
      #   error_square_x2 <dbl>, error_square_x3 <dbl>, error_square_x4 <dbl>,
      #   error_square_x5 <dbl>, error_square_x6 <dbl>, error_square_x7 <dbl>,
      #   row_wise_total_error <dbl>, abs_error_x1 <dbl>, abs_error_x2 <dbl>, ...
…
