…
    Code
      get_projection(projection = projection_df, proj_scale = 1, highd_data = scurve,
        model_highd = df_bin, trimesh_data = edge_data, axis_param = list(limits = 1,
          axis_scaled = 3, axis_pos_x = -0.72, axis_pos_y = -0.72, threshold = 0.09))
    Message
      New names:
      * `` -> `...1`
      * `` -> `...2`
      New names:
      * `` -> `...1`
      * `` -> `...2`
    Output
      $projected_df
      # A tibble: 5,000 x 3
           proj1  proj2    ID
           <dbl>  <dbl> <int>
       1 -0.427  0.315      1
       2 -0.0334 0.221      2
       3  0.174  0.248      3
       4 -0.255  0.124      4
       5 -0.295  0.112      5
       6 -0.486  0.103      6
       7  0.0863 0.0694     7
       8 -0.0357 0.252      8
       9 -0.292  0.154      9
      10  0.145  0.295     10
      # i 4,990 more rows
      
      $model_df
      # A tibble: 297 x 12
          from    to x_from  y_from  x_to   y_to from_count to_count proj1_from
         <int> <int>  <dbl>   <dbl> <dbl>  <dbl>      <dbl>    <dbl>      <dbl>
       1    14    24 0.275   0.127  0.233 0.199          65       67     0.250 
       2    23    24 0.150   0.199  0.233 0.199          39       67     0.205 
       3    23    34 0.150   0.199  0.191 0.271          39       62     0.205 
       4    33    46 0.108   0.271  0.150 0.343          62       34     0.171 
       5    33    34 0.108   0.271  0.191 0.271          62       62     0.171 
       6     1     5 0.358  -0.0171 0.316 0.0550         12       42     0.337 
       7    45    46 0.0665  0.343  0.150 0.343          45       34     0.0873
       8    34    35 0.191   0.271  0.275 0.271          62       68     0.191 
       9    24    25 0.233   0.199  0.316 0.199          67       56     0.227 
      10    25    35 0.316   0.199  0.275 0.271          56       68     0.244 
      # i 287 more rows
      # i 3 more variables: proj2_from <dbl>, proj1_to <dbl>, proj2_to <dbl>
…
