1. Main steps • quollr
…
tr_from_to_df <- generate_edge_info(triangular_object = tr1_object)
tr_from_to_df
#> # A tibble: 25 × 6
#>     from    to x_from y_from  x_to  y_to
#>    <int> <int>  <dbl>  <dbl> <dbl> <dbl>
#>  1     1     2  0        0   0.346   0  
#>  2     1     3  0        0   0.173   0.3
#>  3     2     4  0.346    0   0.520   0.3
#>  4     3     4  0.173    0.3 0.520   0.3
#>  5     3     5  0.173    0.3 0.346   0.6
#>  6     4     6  0.520    0.3 0.693   0.6
#>  7     5     6  0.346    0.6 0.693   0.6
#>  8     5     7  0.346    0.6 0.866   0.9
#>  9     5     8  0.346    0.6 0.693   1.2
#> 10     7    12  0.866    0.9 1.04    1.8
#> # ℹ 15 more rows
…
## To generate a data set with high-dimensional training data and 2D embeddings with hexagonal IDs
df_all <- dplyr::bind_cols(s_curve_noise_training |> dplyr::select(-ID), umap_data_with_hb_id)
df_all
#> # A tibble: 75 × 10
#>         x1     x2        x3       x4        x5       x6        x7  UMAP1  UMAP2
#>      <dbl>  <dbl>     <dbl>    <dbl>     <dbl>    <dbl>     <dbl>  <dbl>  <dbl>
#>  1 -0.120  0.114  -1.99     -0.00246 -0.0178   -0.0181  -0.00317  0.0804 0.274 
#>  2 -0.0492 0.822   0.00121   0.0161   0.00968  -0.0834   0.00230  0.739  0.860 
#>  3 -0.774  0.243   0.367    -0.0198   0.00408  -0.0349  -0.00911  0.840  0.929 
#>  4 -0.606  1.96   -1.80      0.0132  -0.000479 -0.00478 -0.00843  0.167  0.0371
#>  5  0.818  0.0388 -1.58      0.00253  0.00167   0.0781  -0.00771  0.263  0.342 
#>  6  0.910  1.55    1.42      0.0124   0.0160   -0.00248 -0.00832  0.838  1.72  
#>  7 -0.0691 0.978   0.00239   0.0115   0.00350   0.0898   0.00359  0.734  0.834 
#>  8  0.859  1.55   -0.488    -0.00753 -0.0123    0.0336  -0.00665  0.627  0.618 
#>  9 -0.0400 0.286   0.000801  0.0123   0.00613  -0.0121  -0.000347 0.810  0.868 
#> 10  0.765  0.898   1.64     -0.0178   0.0151   -0.0710  -0.00624  0.903  1.60  
#> # ℹ 65 more rows
#> # ℹ 1 more variable: hb_id <dbl>
…
