Calculate 2D Euclidean distances between vertices — cal_2d_dist • quollr
…
select_vars
A character vector specifying the columns to be
selected in the resulting data frame.

    Value

    A tibble with columns for the starting point, ending point,
and calculated distances.

    Examples

tr_from_to_df <- s_curve_obj$s_curve_umap_model_tr_from_to_df
cal_2d_dist(tr_coord_df = tr_from_to_df, start_x = "x_from", start_y = "y_from",
end_x = "x_to", end_y = "y_to", select_vars = c("from", "to", "distance"))
#> # A tibble: 35 × 3
#>     from    to distance
#>    <int> <int>    <dbl>
#>  1     1     2    0.327
#>  2     4     5    0.327
#>  3     3     5    0.327
#>  4     5     6    0.327
#>  5     5    11    0.566
#>  6     5     8    0.327
#>  7     1    10    0.865
#>  8     5    10    0.654
#>  9    10    11    0.327
#> 10     8     9    0.327
#> # ℹ 25 more rows
…
