Create a dataframe with averaged high-dimensional data and high-dimensional data, non-linear dimension reduction data, model error data — comb_all_data_model_error • quollr
…
    Value

    A tibble with the average values of the high-dimensional data within
each hexagonal bin and high-dimensional data, non-linear dimension reduction data, model error.

    Examples

df_bin_centroids <- s_curve_obj$s_curve_umap_model_obj$df_bin_centroids
df_bin <- s_curve_obj$s_curve_umap_model_obj$df_bin
model_error <- augment(model_2d = df_bin_centroids, model_highd = df_bin,
highd_data = s_curve_noise_training)
comb_all_data_model_error(highd_data = s_curve_noise_training, nldr_data = s_curve_obj$s_curve_umap_scaled_obj$scaled_nldr,
model_highd = df_bin, model_2d = df_bin_centroids, error_df = model_error)
#> # A tibble: 3,765 × 12
#>         x1    x2       x3        x4       x5       x6       x7 type   emb1  emb2
#>      <dbl> <dbl>    <dbl>     <dbl>    <dbl>    <dbl>    <dbl> <chr> <dbl> <dbl>
#>  1  0.979  1.90   1.17     -7.26e-4  5.19e-5 -2.92e-2 -9.46e-4 model    NA    NA
#>  2  0.164  1.70   1.92     -1.34e-3  1.23e-3  7.17e-3 -1.11e-4 model    NA    NA
#>  3 -0.736  1.88   1.65      7.79e-4  4.45e-4  3.75e-4  1.20e-3 model    NA    NA
#>  4  0.760  0.878  1.55     -2.96e-5 -4.55e-4 -2.83e-3 -1.61e-4 model    NA    NA
#>  5 -0.442  0.732  1.77     -2.56e-4 -2.05e-4 -2.90e-3  1.41e-4 model    NA    NA
#>  6 -0.885  1.25   0.736     3.38e-4  5.25e-4 -1.74e-3  1.72e-4 model    NA    NA
#>  7 -0.299  1.81   0.0673   -2.01e-3 -3.63e-4 -5.81e-3  7.64e-5 model    NA    NA
#>  8 -0.894  0.188  0.678    -7.86e-5 -6.32e-4 -5.85e-3  3.28e-4 model    NA    NA
#>  9 -0.0121 0.886  0.00428  -6.07e-4  1.05e-3  3.24e-3  3.02e-4 model    NA    NA
#> 10 -0.749  0.876 -1.55     -2.30e-4 -3.61e-4  1.02e-4 -4.97e-5 model    NA    NA
#> # ℹ 3,755 more rows
#> # ℹ 2 more variables: sqrt_row_wise_total_error <dbl>, density <dbl>
…
