Extract Coordinates of Shifted Hexagonal Grid — extract_coord_of_shifted_hex_grid • quollr
…
    Examples

num_bins_x <- 4
shape_value <- 1.833091
hexbin_data_object <- extract_hexbin_centroids(nldr_df = s_curve_noise_umap,
num_bins = num_bins_x, shape_val = shape_value)
df_bin_centroids <- hexbin_data_object$hexdf_data
hex_full_count_df <- generate_full_grid_info(df_bin_centroids)
UMAP_data_with_hb_id <- s_curve_noise_umap |> dplyr::mutate(hb_id = hexbin_data_object$hb_data@cID)
extract_coord_of_shifted_hex_grid(nldr_data_with_hb_id = UMAP_data_with_hb_id,
num_bins_x = num_bins_x, hex_full_count_df)
#> $hex_full_count_df_new
#> # A tibble: 300 × 9
#>        x     y    id   c_x   c_y hexID polygon_id counts std_counts
#>    <dbl> <dbl> <int> <dbl> <dbl> <int>      <int>  <int>      <dbl>
#>  1 -3.09 -5.83     1 -3.81 -6.28     1          1     NA       NA  
#>  2 -3.09 -6.73     1 -3.81 -6.28     1          1     NA       NA  
#>  3 -3.81 -7.19     1 -3.81 -6.28     1          1     NA       NA  
#>  4 -4.52 -6.73     1 -3.81 -6.28     1          1     NA       NA  
#>  5 -4.52 -5.83     1 -3.81 -6.28     1          1     NA       NA  
#>  6 -3.81 -5.37     1 -3.81 -6.28     1          1     NA       NA  
#>  7 -1.66 -5.83     2 -2.38 -6.28     2          2      4        0.4
#>  8 -1.66 -6.73     2 -2.38 -6.28     2          2      4        0.4
#>  9 -2.38 -7.19     2 -2.38 -6.28     2          2      4        0.4
#> 10 -3.09 -6.73     2 -2.38 -6.28     2          2      4        0.4
#> # ℹ 290 more rows
…
