Construct the 2-D model and lift into high-dimensions — fit_highd_model • quollr
…
    A list containing a list of a tibble contains scaled first and second columns
of NLDR data, and numeric vectors representing the limits of the original NLDR data (nldr_obj),
a object that contains hexagonal binning information (hb_obj),
a tibble with high-dimensional model (model_highd) and a tibble containing
hexagonal bin centroids in 2-D (model_2d), and
a tibble that contains the edge information (trimesh_data).

    Examples

fit_highd_model(highd_data = scurve, nldr_data = scurve_umap, b1 = 4,
q = 0.1, benchmark_highdens = 5)
#> ✔ Model generated successfully!!!
#> $nldr_obj
#> $nldr_obj$scaled_nldr
#> # A tibble: 1,000 × 3
#>     emb1  emb2    ID
#>    <dbl> <dbl> <int>
#>  1 0.277 0.913     1
#>  2 0.697 0.538     2
#>  3 0.779 0.399     3
#>  4 0.173 0.953     4
#>  5 0.218 0.983     5
#>  6 0.593 1.05      6
#>  7 0.180 0.210     7
#>  8 0.976 0.571     8
#>  9 0.803 0.829     9
#> 10 0.932 0.410    10
#> # ℹ 990 more rows
…
#> 109 19  0.69240260  1.485548350
#> 110 19  0.49430195  1.371174887
#> 111 19  0.49430195  1.142427959
#> 112 19  0.69240260  1.028054495
#> 113 19  0.89050325  1.142427959
#> 114 19  0.89050325  1.371174887
#> 115 20  1.08860390  1.485548350
#> 116 20  0.89050325  1.371174887
#> 117 20  0.89050325  1.142427959
#> 118 20  1.08860390  1.028054495
#> 119 20  1.28670455  1.142427959
#> 120 20  1.28670455  1.371174887
#> 
#> $data_hb_id
#> # A tibble: 1,000 × 4
#>     emb1  emb2    ID     h
#>    <dbl> <dbl> <int> <int>
#>  1 0.277 0.913     1    13
#>  2 0.697 0.538     2    11
#>  3 0.779 0.399     3    11
#>  4 0.173 0.953     4    13
#>  5 0.218 0.983     5    13
#>  6 0.593 1.05      6    14
#>  7 0.180 0.210     7     5
#>  8 0.976 0.571     8    12
#>  9 0.803 0.829     9    15
#> 10 0.932 0.410    10     7
#> # ℹ 990 more rows
…
#> 1   2 0.29620130 -0.1156801  30 0.030
#> 2   3 0.69240260 -0.1156801  14 0.014
#> 3   5 0.09810065  0.2274402  75 0.075
#> 4   6 0.49430195  0.2274402 137 0.137
#> 5   7 0.89050325  0.2274402 132 0.132
#> 6  10 0.29620130  0.5705606  12 0.012
#> 7  11 0.69240260  0.5705606 132 0.132
#> 8  12 1.08860390  0.5705606  37 0.037
#> 9  13 0.09810065  0.9136810 140 0.140
#> 10 14 0.49430195  0.9136810 176 0.176
#> 11 15 0.89050325  0.9136810  67 0.067
#> 12 18 0.29620130  1.2568014  44 0.044
#> 
#> $trimesh_data
#> # A tibble: 23 × 8
#>     from    to x_from y_from  x_to  y_to from_count to_count
#>    <int> <int>  <dbl>  <dbl> <dbl> <dbl>      <dbl>    <dbl>
#>  1     3     4 0.0981  0.227 0.494 0.227         75      137
#>  2     3     6 0.0981  0.227 0.296 0.571         75       12
#>  3     2     4 0.692  -0.116 0.494 0.227         14      137
#>  4     4     5 0.494   0.227 0.891 0.227        137      132
#>  5     4     7 0.494   0.227 0.692 0.571        137      132
#>  6     6    10 0.296   0.571 0.494 0.914         12      176
#>  7     6     7 0.296   0.571 0.692 0.571         12      132
#>  8     7     8 0.692   0.571 1.09  0.571        132       37
#>  9     7    11 0.692   0.571 0.891 0.914        132       67
#> 10     9    12 0.0981  0.914 0.296 1.26         140       44
#> # ℹ 13 more rows
…
