Compute Projection for High-Dimensional Data — get_projection • quollr
…
get_projection(projection = projection_df, proj_scale = 1,
highd_data = scurve, model_highd = df_bin,
trimesh_data = edge_data,
axis_param = list(limits = 1, axis_scaled = 3, axis_pos_x = -0.72,
axis_pos_y = -0.72,threshold = 0.09))
#> New names:
#> • `` -> `...1`
#> • `` -> `...2`
#> New names:
#> • `` -> `...1`
#> • `` -> `...2`
#> $projected_df
#> # A tibble: 1,000 × 3
#>       proj1  proj2    ID
#>       <dbl>  <dbl> <int>
#>  1 -0.400   0.182      1
#>  2  0.00561 0.0247     2
#>  3  0.187   0.174      3
#>  4 -0.276   0.231      4
#>  5 -0.320   0.243      5
#>  6 -0.509   0.221      6
#>  7  0.0934  0.0246     7
#>  8 -0.0438  0.294      8
#>  9 -0.284   0.116      9
#> 10  0.147   0.289     10
#> # ℹ 990 more rows
#> 
#> $model_df
#> # A tibble: 346 × 14
#>     from    to x_from y_from  x_to   y_to from_count to_count from_reindexed
#>    <int> <int>  <dbl>  <dbl> <dbl>  <dbl>      <dbl>    <dbl>          <int>
#>  1    35    49  0.234 0.0288 0.192 0.101          10       11              2
#>  2    34    35  0.150 0.0288 0.234 0.0288          1       10              1
#>  3    49    65  0.192 0.101  0.234 0.173          11       10              8
#>  4    35    36  0.234 0.0288 0.317 0.0288         10        8              2
#>  5    64    65  0.150 0.173  0.234 0.173           5       10             17
#>  6    35    50  0.234 0.0288 0.275 0.101          10        9              2
#>  7    64    79  0.150 0.173  0.192 0.245           5       10             17
#>  8    36    50  0.317 0.0288 0.275 0.101           8        9              3
#>  9    78    94  0.109 0.245  0.150 0.318           1       11             27
#> 10    78    79  0.109 0.245  0.192 0.245           1       10             27
#> # ℹ 336 more rows
#> # ℹ 5 more variables: to_reindexed <int>, proj1_from <dbl>, proj2_from <dbl>,
#> #   proj1_to <dbl>, proj2_to <dbl>
…
