Hexagonal binning — hex_binning • quollr
…
#>  9     9 -0.1     0.448 
#> 10    10  0.210   0.448 
#> 11    11  0.520   0.448 
#> 12    12  0.830   0.448 
#> 13    13  0.0549  0.717 
#> 14    14  0.365   0.717 
#> 15    15  0.675   0.717 
#> 16    16  0.985   0.717 
#> 17    17 -0.1     0.985 
#> 18    18  0.210   0.985 
#> 19    19  0.520   0.985 
#> 20    20  0.830   0.985 
#> 
#> $hex_poly
#> # A tibble: 120 × 3
#>    hex_poly_id       x         y
#>          <int>   <dbl>     <dbl>
#>  1           1 -0.1     0.0904  
#>  2           1 -0.255   0.000959
#>  3           1 -0.255  -0.178   
#>  4           1 -0.1    -0.267   
#>  5           1  0.0549 -0.178   
#>  6           1  0.0549  0.000959
#>  7           2  0.210   0.0904  
#>  8           2  0.0549  0.000959
#>  9           2  0.0549 -0.178   
#> 10           2  0.210  -0.267   
#> # ℹ 110 more rows
#> 
#> $data_hb_id
#> # A tibble: 3,750 × 4
#>     emb1   emb2    ID hb_id
#>    <dbl>  <dbl> <int> <int>
#>  1 0.270 0.839      1    14
#>  2 0.788 0.466      2    12
#>  3 0.771 0.319      3    12
#>  4 0.306 0.542      5    10
#>  5 0.549 0.806      6    15
#>  6 0.166 0.259      7     5
#>  7 0.672 0.596      9    15
#>  8 0.735 0.354     10    12
#>  9 0.839 0.467     11    12
#> 10 0.240 0.0903    12     6
#> # ℹ 3,740 more rows
…
